{
  "notification": {
    "ticket_mail": "<secret>",
    "contact_form_recipient": "..."
  },
  "oidc": {
    "client_id": "...",
    "client_secret": "...",
    "config_url": "https://example.org/auth/realms/example/.well-known/openid-configuration",
    "login_redirect_url": "/",
    "logout_redirect_url": "/"
  },
  "user": {
    "default_namespace": "ch",
    "uid": {
      "min": 1000000,
      "max": 1499999
    },
    "gid": {
      "min": 1000000,
      "max": 1499999
    },
    "local_username": {
      "min_length": 6,
      "max_length": 64
    }
  },
  "project": {
    "gid": {
      "min": 1500000,
      "max": 1999999
    }
  },
  "email": {
    "host": "...",
    "port": 587,
    "use_tls": true,
    "user": "...",
    "password": "...",
    "from_address": "...",
    "subject_prefix": "BioMed-IT Portal: "
  },
  "pgp": {
    "keyserver": "https://keyserver.dcc.sib.swiss"
  },
  "session": {
    "expire_at_browser_close": true,
    "expire_seconds": 86400
  },
  "logging": {
    "level": "DEBUG"
  },
  "switch": {
    "auth_username": "",
    "scim_api_affiliations_url": "",
    "scim_api_username": "",
    "scim_api_password": ""
  }
}
